Project 1
…
joined1  %>% arrange(desc(total_suicides_country))%>% select(total_suicides_country, country) #shows country with greatest amount of suicides overall

## Adding missing grouping variables: `year`

## # A tibble: 2,321 x 3
## # Groups:   year [32]
##     year total_suicides_country country           
##    <dbl>                  <int> <fct>             
##  1  1994                  61420 Russian Federation
##  2  1995                  60548 Russian Federation
##  3  1996                  57511 Russian Federation
##  4  1999                  56974 Russian Federation
##  5  2001                  56958 Russian Federation
##  6  2000                  56619 Russian Federation
##  7  1993                  55846 Russian Federation
##  8  2002                  55024 Russian Federation
##  9  1997                  54746 Russian Federation
## 10  1998                  51518 Russian Federation
## # … with 2,311 more rows

joined1 %>% group_by(country) %>% summarize(total_suicides = sum(total_suicides_country), minimum_suicides = min(total_suicides_country), maximum_suicides=max(total_suicides_country)) #RStandard deviation, minimum, and maximum total suicides for each country

## `summarise()` ungrouping output (override with `.groups` argument)

## # A tibble: 101 x 4
##    country             total_suicides minimum_suicides maximum_suicides
##    <fct>                        <int>            <int>            <int>
##  1 Albania                       1970                0              170
##  2 Antigua and Barbuda             11                0                2
##  3 Argentina                    82219             1951             3289
##  4 Armenia                       1905               53              130
##  5 Aruba                          101                2               10
##  6 Australia                    70111             1861             3027
##  7 Austria                      50073             1201             2139
##  8 Azerbaijan                    1656               47              317
##  9 Bahamas                         93                1               11
## 10 Bahrain                        463                0               43
## # … with 91 more rows
…
## [1] 101

joined1%>% ungroup() %>% na.omit %>% select_if(is.numeric) %>% summarize(cor(total_earthqks, total_suicides_world)) #computed correlation between avg magnitudes and number of suicides in the world from 1985 to 2016

## # A tibble: 1 x 1
##   `cor(total_earthqks, total_suicides_world)`
##                                         <dbl>
## 1                                       0.110

joined%>%na.omit %>% select_if(is.numeric) %>% summarize(cor(total_earthqks, total_suicides_country)) #correlation between total earthquakes and number of suicides in each country

## `summarise()` ungrouping output (override with `.groups` argument)

## # A tibble: 101 x 2
##    country             `cor(total_earthqks, total_suicides_country)`
##    <fct>                                                       <dbl>
##  1 Albania                                                    -0.292
##  2 Antigua and Barbuda                                         0.259
##  3 Argentina                                                   0.111
##  4 Armenia                                                     0.164
##  5 Aruba                                                       0.326
##  6 Australia                                                  -0.257
##  7 Austria                                                    -0.127
##  8 Azerbaijan                                                 -0.300
##  9 Bahamas                                                     0.175
## 10 Bahrain                                                     0.436
## # … with 91 more rows
…
